+------------------------------------------------------------------------------------------------------------------------------------------------------------------------------------------------------------------------------------------------------------------------------------------------------------+
; Legal Partition Candidates                                                                                                                                                                                                                                                                                 ;
+-------------------------------------------------------------------------------------------------------+-------+----------------+--------------+----------------+--------+-----------------+---------------+-----------------+-------+----------------+--------------+------------------+-------------------+
; Hierarchy                                                                                             ; Input ; Constant Input ; Unused Input ; Floating Input ; Output ; Constant Output ; Unused Output ; Floating Output ; Bidir ; Constant Bidir ; Unused Bidir ; Input only Bidir ; Output only Bidir ;
+-------------------------------------------------------------------------------------------------------+-------+----------------+--------------+----------------+--------+-----------------+---------------+-----------------+-------+----------------+--------------+------------------+-------------------+
; u0|rst_controller|alt_rst_req_sync_uq1                                                                ; 2     ; 1              ; 0            ; 1              ; 1      ; 1               ; 1             ; 1               ; 0     ; 0              ; 0            ; 0                ; 0                 ;
; u0|rst_controller|alt_rst_sync_uq1                                                                    ; 2     ; 0              ; 0            ; 0              ; 1      ; 0               ; 0             ; 0               ; 0     ; 0              ; 0            ; 0                ; 0                 ;
; u0|rst_controller                                                                                     ; 33    ; 30             ; 0            ; 30             ; 2      ; 30              ; 30            ; 30              ; 0     ; 0              ; 0            ; 0                ; 0                 ;
; u0|irq_mapper                                                                                         ; 5     ; 29             ; 2            ; 29             ; 32     ; 29              ; 29            ; 29              ; 0     ; 0              ; 0            ; 0                ; 0                 ;
; u0|mm_interconnect_0|avalon_st_adapter_005|error_adapter_0                                            ; 38    ; 1              ; 2            ; 1              ; 37     ; 1               ; 1             ; 1               ; 0     ; 0              ; 0            ; 0                ; 0                 ;
; u0|mm_interconnect_0|avalon_st_adapter_005                                                            ; 38    ; 0              ; 0            ; 0              ; 37     ; 0               ; 0             ; 0               ; 0     ; 0              ; 0            ; 0                ; 0                 ;
; u0|mm_interconnect_0|avalon_st_adapter_004|error_adapter_0                                            ; 38    ; 1              ; 2            ; 1              ; 37     ; 1               ; 1             ; 1               ; 0     ; 0              ; 0            ; 0                ; 0                 ;
; u0|mm_interconnect_0|avalon_st_adapter_004                                                            ; 38    ; 0              ; 0            ; 0              ; 37     ; 0               ; 0             ; 0               ; 0     ; 0              ; 0            ; 0                ; 0                 ;
; u0|mm_interconnect_0|avalon_st_adapter_003|error_adapter_0                                            ; 38    ; 1              ; 2            ; 1              ; 37     ; 1               ; 1             ; 1               ; 0     ; 0              ; 0            ; 0                ; 0                 ;
; u0|mm_interconnect_0|avalon_st_adapter_003                                                            ; 38    ; 0              ; 0            ; 0              ; 37     ; 0               ; 0             ; 0               ; 0     ; 0              ; 0            ; 0                ; 0                 ;
; u0|mm_interconnect_0|avalon_st_adapter_002|error_adapter_0                                            ; 38    ; 1              ; 2            ; 1              ; 37     ; 1               ; 1             ; 1               ; 0     ; 0              ; 0            ; 0                ; 0                 ;
; u0|mm_interconnect_0|avalon_st_adapter_002                                                            ; 38    ; 0              ; 0            ; 0              ; 37     ; 0               ; 0             ; 0               ; 0     ; 0              ; 0            ; 0                ; 0                 ;
; u0|mm_interconnect_0|avalon_st_adapter_001|error_adapter_0                                            ; 38    ; 1              ; 2            ; 1              ; 37     ; 1               ; 1             ; 1               ; 0     ; 0              ; 0            ; 0                ; 0                 ;
; u0|mm_interconnect_0|avalon_st_adapter_001                                                            ; 38    ; 0              ; 0            ; 0              ; 37     ; 0               ; 0             ; 0               ; 0     ; 0              ; 0            ; 0                ; 0                 ;
; u0|mm_interconnect_0|avalon_st_adapter|error_adapter_0                                                ; 38    ; 1              ; 2            ; 1              ; 37     ; 1               ; 1             ; 1               ; 0     ; 0              ; 0            ; 0                ; 0                 ;
; u0|mm_interconnect_0|avalon_st_adapter                                                                ; 38    ; 0              ; 0            ; 0              ; 37     ; 0               ; 0             ; 0               ; 0     ; 0              ; 0            ; 0                ; 0                 ;
; u0|mm_interconnect_0|rsp_mux_001|arb|adder                                                            ; 12    ; 6              ; 0            ; 6              ; 6      ; 6               ; 6             ; 6               ; 0     ; 0              ; 0            ; 0                ; 0                 ;
; u0|mm_interconnect_0|rsp_mux_001|arb                                                                  ; 7     ; 0              ; 4            ; 0              ; 3      ; 0               ; 0             ; 0               ; 0     ; 0              ; 0            ; 0                ; 0                 ;
; u0|mm_interconnect_0|rsp_mux_001                                                                      ; 315   ; 0              ; 0            ; 0              ; 107    ; 0               ; 0             ; 0               ; 0     ; 0              ; 0            ; 0                ; 0                 ;
; u0|mm_interconnect_0|rsp_mux|arb|adder                                                                ; 24    ; 12             ; 0            ; 12             ; 12     ; 12              ; 12            ; 12              ; 0     ; 0              ; 0            ; 0                ; 0                 ;
; u0|mm_interconnect_0|rsp_mux|arb                                                                      ; 10    ; 0              ; 4            ; 0              ; 6      ; 0               ; 0             ; 0               ; 0     ; 0              ; 0            ; 0                ; 0                 ;
; u0|mm_interconnect_0|rsp_mux                                                                          ; 627   ; 0              ; 0            ; 0              ; 110    ; 0               ; 0             ; 0               ; 0     ; 0              ; 0            ; 0                ; 0                 ;
; u0|mm_interconnect_0|rsp_demux_005                                                                    ; 107   ; 1              ; 2            ; 1              ; 105    ; 1               ; 1             ; 1               ; 0     ; 0              ; 0            ; 0                ; 0                 ;
; u0|mm_interconnect_0|rsp_demux_004                                                                    ; 108   ; 4              ; 2            ; 4              ; 209    ; 4               ; 4             ; 4               ; 0     ; 0              ; 0            ; 0                ; 0                 ;
; u0|mm_interconnect_0|rsp_demux_003                                                                    ; 107   ; 1              ; 2            ; 1              ; 105    ; 1               ; 1             ; 1               ; 0     ; 0              ; 0            ; 0                ; 0                 ;
; u0|mm_interconnect_0|rsp_demux_002                                                                    ; 108   ; 4              ; 2            ; 4              ; 209    ; 4               ; 4             ; 4               ; 0     ; 0              ; 0            ; 0                ; 0                 ;
; u0|mm_interconnect_0|rsp_demux_001                                                                    ; 108   ; 4              ; 2            ; 4              ; 209    ; 4               ; 4             ; 4               ; 0     ; 0              ; 0            ; 0                ; 0                 ;
; u0|mm_interconnect_0|rsp_demux                                                                        ; 107   ; 1              ; 2            ; 1              ; 105    ; 1               ; 1             ; 1               ; 0     ; 0              ; 0            ; 0                ; 0                 ;
; u0|mm_interconnect_0|cmd_mux_005                                                                      ; 107   ; 0              ; 2            ; 0              ; 105    ; 0               ; 0             ; 0               ; 0     ; 0              ; 0            ; 0                ; 0                 ;
; u0|mm_interconnect_0|cmd_mux_004|arb|adder                                                            ; 8     ; 2              ; 0            ; 2              ; 4      ; 2               ; 2             ; 2               ; 0     ; 0              ; 0            ; 0                ; 0                 ;
; u0|mm_interconnect_0|cmd_mux_004|arb                                                                  ; 6     ; 0              ; 1            ; 0              ; 2      ; 0               ; 0             ; 0               ; 0     ; 0              ; 0            ; 0                ; 0                 ;
; u0|mm_interconnect_0|cmd_mux_004                                                                      ; 211   ; 0              ; 0            ; 0              ; 106    ; 0               ; 0             ; 0               ; 0     ; 0              ; 0            ; 0                ; 0                 ;
; u0|mm_interconnect_0|cmd_mux_003                                                                      ; 107   ; 0              ; 2            ; 0              ; 105    ; 0               ; 0             ; 0               ; 0     ; 0              ; 0            ; 0                ; 0                 ;
; u0|mm_interconnect_0|cmd_mux_002|arb|adder                                                            ; 8     ; 2              ; 0            ; 2              ; 4      ; 2               ; 2             ; 2               ; 0     ; 0              ; 0            ; 0                ; 0                 ;
; u0|mm_interconnect_0|cmd_mux_002|arb                                                                  ; 6     ; 0              ; 1            ; 0              ; 2      ; 0               ; 0             ; 0               ; 0     ; 0              ; 0            ; 0                ; 0                 ;
; u0|mm_interconnect_0|cmd_mux_002                                                                      ; 211   ; 0              ; 0            ; 0              ; 106    ; 0               ; 0             ; 0               ; 0     ; 0              ; 0            ; 0                ; 0                 ;
; u0|mm_interconnect_0|cmd_mux_001|arb|adder                                                            ; 8     ; 2              ; 0            ; 2              ; 4      ; 2               ; 2             ; 2               ; 0     ; 0              ; 0            ; 0                ; 0                 ;
; u0|mm_interconnect_0|cmd_mux_001|arb                                                                  ; 6     ; 0              ; 1            ; 0              ; 2      ; 0               ; 0             ; 0               ; 0     ; 0              ; 0            ; 0                ; 0                 ;
; u0|mm_interconnect_0|cmd_mux_001                                                                      ; 211   ; 0              ; 0            ; 0              ; 106    ; 0               ; 0             ; 0               ; 0     ; 0              ; 0            ; 0                ; 0                 ;
; u0|mm_interconnect_0|cmd_mux                                                                          ; 107   ; 0              ; 2            ; 0              ; 105    ; 0               ; 0             ; 0               ; 0     ; 0              ; 0            ; 0                ; 0                 ;
; u0|mm_interconnect_0|cmd_demux_001                                                                    ; 114   ; 9              ; 5            ; 9              ; 313    ; 9               ; 9             ; 9               ; 0     ; 0              ; 0            ; 0                ; 0                 ;
; u0|mm_interconnect_0|cmd_demux                                                                        ; 117   ; 36             ; 2            ; 36             ; 625    ; 36              ; 36            ; 36              ; 0     ; 0              ; 0            ; 0                ; 0                 ;
; u0|mm_interconnect_0|nios2_gen2_0_instruction_master_limiter                                          ; 212   ; 0              ; 0            ; 0              ; 215    ; 0               ; 0             ; 0               ; 0     ; 0              ; 0            ; 0                ; 0                 ;
; u0|mm_interconnect_0|nios2_gen2_0_data_master_limiter                                                 ; 212   ; 0              ; 0            ; 0              ; 215    ; 0               ; 0             ; 0               ; 0     ; 0              ; 0            ; 0                ; 0                 ;
; u0|mm_interconnect_0|router_007|the_default_decode                                                    ; 0     ; 6              ; 0            ; 6              ; 6      ; 6               ; 6             ; 6               ; 0     ; 0              ; 0            ; 0                ; 0                 ;
; u0|mm_interconnect_0|router_007                                                                       ; 101   ; 0              ; 2            ; 0              ; 105    ; 0               ; 0             ; 0               ; 0     ; 0              ; 0            ; 0                ; 0                 ;
; u0|mm_interconnect_0|router_006|the_default_decode                                                    ; 0     ; 6              ; 0            ; 6              ; 6      ; 6               ; 6             ; 6               ; 0     ; 0              ; 0            ; 0                ; 0                 ;
; u0|mm_interconnect_0|router_006                                                                       ; 101   ; 0              ; 2            ; 0              ; 105    ; 0               ; 0             ; 0               ; 0     ; 0              ; 0            ; 0                ; 0                 ;
; u0|mm_interconnect_0|router_005|the_default_decode                                                    ; 0     ; 6              ; 0            ; 6              ; 6      ; 6               ; 6             ; 6               ; 0     ; 0              ; 0            ; 0                ; 0                 ;
; u0|mm_interconnect_0|router_005                                                                       ; 101   ; 0              ; 2            ; 0              ; 105    ; 0               ; 0             ; 0               ; 0     ; 0              ; 0            ; 0                ; 0                 ;
; u0|mm_interconnect_0|router_004|the_default_decode                                                    ; 0     ; 6              ; 0            ; 6              ; 6      ; 6               ; 6             ; 6               ; 0     ; 0              ; 0            ; 0                ; 0                 ;
; u0|mm_interconnect_0|router_004                                                                       ; 101   ; 0              ; 2            ; 0              ; 105    ; 0               ; 0             ; 0               ; 0     ; 0              ; 0            ; 0                ; 0                 ;
; u0|mm_interconnect_0|router_003|the_default_decode                                                    ; 0     ; 6              ; 0            ; 6              ; 6      ; 6               ; 6             ; 6               ; 0     ; 0              ; 0            ; 0                ; 0                 ;
; u0|mm_interconnect_0|router_003                                                                       ; 101   ; 0              ; 2            ; 0              ; 105    ; 0               ; 0             ; 0               ; 0     ; 0              ; 0            ; 0                ; 0                 ;
; u0|mm_interconnect_0|router_002|the_default_decode                                                    ; 0     ; 6              ; 0            ; 6              ; 6      ; 6               ; 6             ; 6               ; 0     ; 0              ; 0            ; 0                ; 0                 ;
; u0|mm_interconnect_0|router_002                                                                       ; 101   ; 0              ; 2            ; 0              ; 105    ; 0               ; 0             ; 0               ; 0     ; 0              ; 0            ; 0                ; 0                 ;
; u0|mm_interconnect_0|router_001|the_default_decode                                                    ; 0     ; 9              ; 0            ; 9              ; 9      ; 9               ; 9             ; 9               ; 0     ; 0              ; 0            ; 0                ; 0                 ;
; u0|mm_interconnect_0|router_001                                                                       ; 101   ; 0              ; 5            ; 0              ; 105    ; 0               ; 0             ; 0               ; 0     ; 0              ; 0            ; 0                ; 0                 ;
; u0|mm_interconnect_0|router|the_default_decode                                                        ; 0     ; 9              ; 0            ; 9              ; 9      ; 9               ; 9             ; 9               ; 0     ; 0              ; 0            ; 0                ; 0                 ;
; u0|mm_interconnect_0|router                                                                           ; 101   ; 0              ; 5            ; 0              ; 105    ; 0               ; 0             ; 0               ; 0     ; 0              ; 0            ; 0                ; 0                 ;
; u0|mm_interconnect_0|timer_0_s1_agent_rsp_fifo                                                        ; 141   ; 39             ; 0            ; 39             ; 100    ; 39              ; 39            ; 39              ; 0     ; 0              ; 0            ; 0                ; 0                 ;
; u0|mm_interconnect_0|timer_0_s1_agent|uncompressor                                                    ; 35    ; 1              ; 0            ; 1              ; 33     ; 1               ; 1             ; 1               ; 0     ; 0              ; 0            ; 0                ; 0                 ;
; u0|mm_interconnect_0|timer_0_s1_agent                                                                 ; 281   ; 39             ; 43           ; 39             ; 297    ; 39              ; 39            ; 39              ; 0     ; 0              ; 0            ; 0                ; 0                 ;
; u0|mm_interconnect_0|onchip_memory2_0_s1_agent_rsp_fifo                                               ; 141   ; 39             ; 0            ; 39             ; 100    ; 39              ; 39            ; 39              ; 0     ; 0              ; 0            ; 0                ; 0                 ;
; u0|mm_interconnect_0|onchip_memory2_0_s1_agent|uncompressor                                           ; 35    ; 1              ; 0            ; 1              ; 33     ; 1               ; 1             ; 1               ; 0     ; 0              ; 0            ; 0                ; 0                 ;
; u0|mm_interconnect_0|onchip_memory2_0_s1_agent                                                        ; 281   ; 39             ; 43           ; 39             ; 297    ; 39              ; 39            ; 39              ; 0     ; 0              ; 0            ; 0                ; 0                 ;
; u0|mm_interconnect_0|pio_0_s1_agent_rsp_fifo                                                          ; 141   ; 39             ; 0            ; 39             ; 100    ; 39              ; 39            ; 39              ; 0     ; 0              ; 0            ; 0                ; 0                 ;
; u0|mm_interconnect_0|pio_0_s1_agent|uncompressor                                                      ; 35    ; 1              ; 0            ; 1              ; 33     ; 1               ; 1             ; 1               ; 0     ; 0              ; 0            ; 0                ; 0                 ;
; u0|mm_interconnect_0|pio_0_s1_agent                                                                   ; 281   ; 39             ; 43           ; 39             ; 297    ; 39              ; 39            ; 39              ; 0     ; 0              ; 0            ; 0                ; 0                 ;
; u0|mm_interconnect_0|nios2_gen2_0_debug_mem_slave_agent_rsp_fifo                                      ; 141   ; 39             ; 0            ; 39             ; 100    ; 39              ; 39            ; 39              ; 0     ; 0              ; 0            ; 0                ; 0                 ;
; u0|mm_interconnect_0|nios2_gen2_0_debug_mem_slave_agent|uncompressor                                  ; 35    ; 1              ; 0            ; 1              ; 33     ; 1               ; 1             ; 1               ; 0     ; 0              ; 0            ; 0                ; 0                 ;
; u0|mm_interconnect_0|nios2_gen2_0_debug_mem_slave_agent                                               ; 281   ; 39             ; 43           ; 39             ; 297    ; 39              ; 39            ; 39              ; 0     ; 0              ; 0            ; 0                ; 0                 ;
; u0|mm_interconnect_0|counter_0_avalon_slave_0_agent_rsp_fifo                                          ; 141   ; 39             ; 0            ; 39             ; 100    ; 39              ; 39            ; 39              ; 0     ; 0              ; 0            ; 0                ; 0                 ;
; u0|mm_interconnect_0|counter_0_avalon_slave_0_agent|uncompressor                                      ; 35    ; 1              ; 0            ; 1              ; 33     ; 1               ; 1             ; 1               ; 0     ; 0              ; 0            ; 0                ; 0                 ;
; u0|mm_interconnect_0|counter_0_avalon_slave_0_agent                                                   ; 281   ; 39             ; 43           ; 39             ; 297    ; 39              ; 39            ; 39              ; 0     ; 0              ; 0            ; 0                ; 0                 ;
; u0|mm_interconnect_0|jtag_uart_0_avalon_jtag_slave_agent_rsp_fifo                                     ; 141   ; 39             ; 0            ; 39             ; 100    ; 39              ; 39            ; 39              ; 0     ; 0              ; 0            ; 0                ; 0                 ;
; u0|mm_interconnect_0|jtag_uart_0_avalon_jtag_slave_agent|uncompressor                                 ; 35    ; 1              ; 0            ; 1              ; 33     ; 1               ; 1             ; 1               ; 0     ; 0              ; 0            ; 0                ; 0                 ;
; u0|mm_interconnect_0|jtag_uart_0_avalon_jtag_slave_agent                                              ; 281   ; 39             ; 43           ; 39             ; 297    ; 39              ; 39            ; 39              ; 0     ; 0              ; 0            ; 0                ; 0                 ;
; u0|mm_interconnect_0|nios2_gen2_0_instruction_master_agent                                            ; 169   ; 37             ; 73           ; 37             ; 133    ; 37              ; 37            ; 37              ; 0     ; 0              ; 0            ; 0                ; 0                 ;
; u0|mm_interconnect_0|nios2_gen2_0_data_master_agent                                                   ; 169   ; 37             ; 73           ; 37             ; 133    ; 37              ; 37            ; 37              ; 0     ; 0              ; 0            ; 0                ; 0                 ;
; u0|mm_interconnect_0|timer_0_s1_translator                                                            ; 86    ; 22             ; 35           ; 22             ; 55     ; 22              ; 22            ; 22              ; 0     ; 0              ; 0            ; 0                ; 0                 ;
; u0|mm_interconnect_0|onchip_memory2_0_s1_translator                                                   ; 102   ; 7              ; 4            ; 7              ; 88     ; 7               ; 7             ; 7               ; 0     ; 0              ; 0            ; 0                ; 0                 ;
; u0|mm_interconnect_0|pio_0_s1_translator                                                              ; 102   ; 6              ; 20           ; 6              ; 70     ; 6               ; 6             ; 6               ; 0     ; 0              ; 0            ; 0                ; 0                 ;
; u0|mm_interconnect_0|nios2_gen2_0_debug_mem_slave_translator                                          ; 102   ; 5              ; 10           ; 5              ; 82     ; 5               ; 5             ; 5               ; 0     ; 0              ; 0            ; 0                ; 0                 ;
; u0|mm_interconnect_0|counter_0_avalon_slave_0_translator                                              ; 102   ; 6              ; 16           ; 6              ; 72     ; 6               ; 6             ; 6               ; 0     ; 0              ; 0            ; 0                ; 0                 ;
; u0|mm_interconnect_0|jtag_uart_0_avalon_jtag_slave_translator                                         ; 102   ; 5              ; 21           ; 5              ; 70     ; 5               ; 5             ; 5               ; 0     ; 0              ; 0            ; 0                ; 0                 ;
; u0|mm_interconnect_0|nios2_gen2_0_instruction_master_translator                                       ; 103   ; 51             ; 2            ; 51             ; 96     ; 51              ; 51            ; 51              ; 0     ; 0              ; 0            ; 0                ; 0                 ;
; u0|mm_interconnect_0|nios2_gen2_0_data_master_translator                                              ; 103   ; 12             ; 2            ; 12             ; 96     ; 12              ; 12            ; 12              ; 0     ; 0              ; 0            ; 0                ; 0                 ;
; u0|mm_interconnect_0                                                                                  ; 258   ; 0              ; 0            ; 0              ; 301    ; 0               ; 0             ; 0               ; 0     ; 0              ; 0            ; 0                ; 0                 ;
; u0|timer_0                                                                                            ; 23    ; 0              ; 0            ; 0              ; 17     ; 0               ; 0             ; 0               ; 0     ; 0              ; 0            ; 0                ; 0                 ;
; u0|pio_0                                                                                              ; 38    ; 22             ; 22           ; 22             ; 42     ; 22              ; 22            ; 22              ; 0     ; 0              ; 0            ; 0                ; 0                 ;
; u0|performance_counter_0                                                                              ; 2     ; 0              ; 0            ; 0              ; 0      ; 0               ; 0             ; 0               ; 0     ; 0              ; 0            ; 0                ; 0                 ;
; u0|onchip_memory2_0|the_altsyncram|auto_generated|mux2                                                ; 130   ; 0              ; 0            ; 0              ; 32     ; 0               ; 0             ; 0               ; 0     ; 0              ; 0            ; 0                ; 0                 ;
; u0|onchip_memory2_0|the_altsyncram|auto_generated|decode3                                             ; 3     ; 0              ; 0            ; 0              ; 4      ; 0               ; 0             ; 0               ; 0     ; 0              ; 0            ; 0                ; 0                 ;
; u0|onchip_memory2_0|the_altsyncram|auto_generated                                                     ; 54    ; 0              ; 0            ; 0              ; 32     ; 0               ; 0             ; 0               ; 0     ; 0              ; 0            ; 0                ; 0                 ;
; u0|onchip_memory2_0                                                                                   ; 58    ; 1              ; 1            ; 1              ; 32     ; 1               ; 1             ; 1               ; 0     ; 0              ; 0            ; 0                ; 0                 ;
; u0|nios2_gen2_0|cpu                                                                                   ; 151   ; 1              ; 29           ; 1              ; 113    ; 1               ; 1             ; 1               ; 0     ; 0              ; 0            ; 0                ; 0                 ;
; u0|nios2_gen2_0                                                                                       ; 151   ; 0              ; 0            ; 0              ; 112    ; 0               ; 0             ; 0               ; 0     ; 0              ; 0            ; 0                ; 0                 ;
; u0|jtag_uart_0|the_soc_system_jtag_uart_0_scfifo_r|rfifo|auto_generated|dpfifo|wr_ptr                 ; 4     ; 0              ; 0            ; 0              ; 6      ; 0               ; 0             ; 0               ; 0     ; 0              ; 0            ; 0                ; 0                 ;
; u0|jtag_uart_0|the_soc_system_jtag_uart_0_scfifo_r|rfifo|auto_generated|dpfifo|rd_ptr_count           ; 4     ; 0              ; 0            ; 0              ; 6      ; 0               ; 0             ; 0               ; 0     ; 0              ; 0            ; 0                ; 0                 ;
; u0|jtag_uart_0|the_soc_system_jtag_uart_0_scfifo_r|rfifo|auto_generated|dpfifo|FIFOram                ; 24    ; 0              ; 0            ; 0              ; 8      ; 0               ; 0             ; 0               ; 0     ; 0              ; 0            ; 0                ; 0                 ;
; u0|jtag_uart_0|the_soc_system_jtag_uart_0_scfifo_r|rfifo|auto_generated|dpfifo|fifo_state|count_usedw ; 5     ; 0              ; 0            ; 0              ; 6      ; 0               ; 0             ; 0               ; 0     ; 0              ; 0            ; 0                ; 0                 ;
; u0|jtag_uart_0|the_soc_system_jtag_uart_0_scfifo_r|rfifo|auto_generated|dpfifo|fifo_state             ; 5     ; 0              ; 0            ; 0              ; 8      ; 0               ; 0             ; 0               ; 0     ; 0              ; 0            ; 0                ; 0                 ;
; u0|jtag_uart_0|the_soc_system_jtag_uart_0_scfifo_r|rfifo|auto_generated|dpfifo                        ; 13    ; 0              ; 0            ; 0              ; 16     ; 0               ; 0             ; 0               ; 0     ; 0              ; 0            ; 0                ; 0                 ;
; u0|jtag_uart_0|the_soc_system_jtag_uart_0_scfifo_r|rfifo|auto_generated                               ; 12    ; 0              ; 0            ; 0              ; 16     ; 0               ; 0             ; 0               ; 0     ; 0              ; 0            ; 0                ; 0                 ;
; u0|jtag_uart_0|the_soc_system_jtag_uart_0_scfifo_r                                                    ; 13    ; 0              ; 1            ; 0              ; 16     ; 0               ; 0             ; 0               ; 0     ; 0              ; 0            ; 0                ; 0                 ;
; u0|jtag_uart_0|the_soc_system_jtag_uart_0_scfifo_w|wfifo|auto_generated|dpfifo|wr_ptr                 ; 4     ; 0              ; 0            ; 0              ; 6      ; 0               ; 0             ; 0               ; 0     ; 0              ; 0            ; 0                ; 0                 ;
; u0|jtag_uart_0|the_soc_system_jtag_uart_0_scfifo_w|wfifo|auto_generated|dpfifo|rd_ptr_count           ; 4     ; 0              ; 0            ; 0              ; 6      ; 0               ; 0             ; 0               ; 0     ; 0              ; 0            ; 0                ; 0                 ;
; u0|jtag_uart_0|the_soc_system_jtag_uart_0_scfifo_w|wfifo|auto_generated|dpfifo|FIFOram                ; 24    ; 0              ; 0            ; 0              ; 8      ; 0               ; 0             ; 0               ; 0     ; 0              ; 0            ; 0                ; 0                 ;
; u0|jtag_uart_0|the_soc_system_jtag_uart_0_scfifo_w|wfifo|auto_generated|dpfifo|fifo_state|count_usedw ; 5     ; 0              ; 0            ; 0              ; 6      ; 0               ; 0             ; 0               ; 0     ; 0              ; 0            ; 0                ; 0                 ;
; u0|jtag_uart_0|the_soc_system_jtag_uart_0_scfifo_w|wfifo|auto_generated|dpfifo|fifo_state             ; 5     ; 0              ; 0            ; 0              ; 8      ; 0               ; 0             ; 0               ; 0     ; 0              ; 0            ; 0                ; 0                 ;
; u0|jtag_uart_0|the_soc_system_jtag_uart_0_scfifo_w|wfifo|auto_generated|dpfifo                        ; 13    ; 0              ; 0            ; 0              ; 16     ; 0               ; 0             ; 0               ; 0     ; 0              ; 0            ; 0                ; 0                 ;
; u0|jtag_uart_0|the_soc_system_jtag_uart_0_scfifo_w|wfifo|auto_generated                               ; 12    ; 0              ; 0            ; 0              ; 16     ; 0               ; 0             ; 0               ; 0     ; 0              ; 0            ; 0                ; 0                 ;
; u0|jtag_uart_0|the_soc_system_jtag_uart_0_scfifo_w                                                    ; 12    ; 0              ; 0            ; 0              ; 16     ; 0               ; 0             ; 0               ; 0     ; 0              ; 0            ; 0                ; 0                 ;
; u0|jtag_uart_0                                                                                        ; 38    ; 10             ; 23           ; 10             ; 34     ; 10              ; 10            ; 10              ; 0     ; 0              ; 0            ; 0                ; 0                 ;
; u0|counter_0                                                                                          ; 40    ; 0              ; 31           ; 0              ; 33     ; 0               ; 0             ; 0               ; 0     ; 0              ; 0            ; 0                ; 0                 ;
; u0                                                                                                    ; 2     ; 0              ; 0            ; 0              ; 10     ; 0               ; 0             ; 0               ; 0     ; 0              ; 0            ; 0                ; 0                 ;
+-------------------------------------------------------------------------------------------------------+-------+----------------+--------------+----------------+--------+-----------------+---------------+-----------------+-------+----------------+--------------+------------------+-------------------+
